…
Khi véc-tơ <span style='color: #640514; font-family: Source Code Pro;'>x</span> có kích thước lớn, các phần tử không thể đổi sang kiểu logic sẽ được lưu vào một <span style='color: #640514; font-family: Source Code Pro;'>tibble</span> để người phân tích dữ liệu có thể dễ dàng truy cập. Bạn đọc hãy quan sát ví dụ sau:

. Bạn đọc sử dụng hàm `problems()` để xem danh sách các các giá trị này:

``` r
x1<-sample(x, 10^3, replace = TRUE)
y<-parse_logical(x1)
problems(y)
```

```
## # A tibble: 184 × 4
##      row   col expected           actual
##    <int> <int> <chr>              <chr> 
##  1     5    NA 1/0/T/F/TRUE/FALSE .     
##  2    12    NA 1/0/T/F/TRUE/FALSE @     
##  3    23    NA 1/0/T/F/TRUE/FALSE .     
##  4    30    NA 1/0/T/F/TRUE/FALSE 2     
##  5    34    NA 1/0/T/F/TRUE/FALSE 2     
##  6    53    NA 1/0/T/F/TRUE/FALSE .     
##  7    62    NA 1/0/T/F/TRUE/FALSE .     
##  8    63    NA 1/0/T/F/TRUE/FALSE @     
##  9    71    NA 1/0/T/F/TRUE/FALSE 2     
## 10    76    NA 1/0/T/F/TRUE/FALSE .     
## # ℹ 174 more rows
```
…
Khi muốn tính toán giá trị cho một biến mới dựa trên các biến hiện có và thêm biến đó vào dữ liệu, bạn đọc sử dụng hàm <span style='color: #640514; font-family: Source Code Pro;'>mutate()</span>. Hàm <span style='color: #640514; font-family: Source Code Pro;'>mutate()</span> luôn thêm biến vào vị trí phía sau biến cuối cùng theo thứ tự từ trái sang phải trong dữ liệu hiện có. Khi bạn muốn thêm biến vào một vị trí cụ thể trong dữ liệu, bạn có thể sử dụng các tham số sau trong hàm <span style='color: #640514; font-family: Source Code Pro;'>mutate()</span>.

* Tham số <span style='color: #640514; font-family: Source Code Pro;'>.after</span> sử dụng để gán giá trị cho tên biến hiện có sẽ nằm phía trước biến mà bạn đọc muốn thêm vào.
* Tham số <span style='color: #640514; font-family: Source Code Pro;'>.before</span> sử dụng để gán giá trị cho tên biến hiện có sẽ nằm phía sau biến mà bạn đọc muốn thêm vào.

Ví dụ, chúng ta muốn thêm biến thu nhập bình quân đầu người của mỗi quốc gia, được tính bằng thu nhập quốc nội (biến <span style='color: #640514; font-family: Source Code Pro;'>gdp</span>) chia cho dân số của quốc gia đó (biến <span style='color: #640514; font-family: Source Code Pro;'>population</span>), chúng ta sử dụng <span style='color: #640514; font-family: Source Code Pro;'>mutate()</span> như sau:


``` r
mutate(mytib, gdp_per_capita = gdp/population) # Thêm cột có tên là gdp_per_capita
```

```
## # A tibble: 10,545 × 10
##    country   year infant_mortality life_expectancy fertility population      gdp
##    <fct>    <int>            <dbl>           <dbl>     <dbl>      <dbl>    <dbl>
##  1 Albania   1960            115.             62.9      6.19    1636054 NA      
##  2 Algeria   1960            148.             47.5      7.65   11124892  1.38e10
##  3 Angola    1960            208              36.0      7.32    5270844 NA      
##  4 Antigua…  1960             NA              63.0      4.43      54681 NA      
##  5 Argenti…  1960             59.9            65.4      3.11   20619075  1.08e11
##  6 Armenia   1960             NA              66.9      4.55    1867396 NA      
##  7 Aruba     1960             NA              65.7      4.82      54208 NA      
##  8 Austral…  1960             20.3            70.9      3.45   10292328  9.67e10
##  9 Austria   1960             37.3            68.8      2.7     7065525  5.24e10
## 10 Azerbai…  1960             NA              61.3      5.57    3897889 NA      
## # ℹ 10,535 more rows
## # ℹ 3 more variables: continent <fct>, region <fct>, gdp_per_capita <dbl>
```

Câu lệnh trên có ý nghĩa là thêm biến có tên là <span style='color: #640514; font-family: Source Code Pro;'>gdp_per_capita</span>, được tính bằng tổng thu nhập quốc nội (<span style='color: #640514; font-family: Source Code Pro;'>gdp</span>) chia cho dân số (<span style='color: #640514; font-family: Source Code Pro;'>population</span>) của quốc gia đó. Do chúng ta không chỉ định vị trí cụ thể cho biến <span style='color: #640514; font-family: Source Code Pro;'>gdp_per_capita</span>, biến này sẽ nằm ở vị trí cuối cùng theo thứ tự từ trái sang phải trong dữ liệu mới.

Nếu bạn đọc muốn biến mới được thêm vào ngay sau biến <span style='color: #640514; font-family: Source Code Pro;'>infant_mortality</span>, hãy sử dụng tham số <span style='color: #640514; font-family: Source Code Pro;'>.after</span> trong hàm <span style='color: #640514; font-family: Source Code Pro;'>mutate()</span> như sau:


``` r
mutate(mytib, gdp_per_capita = gdp/population, .after = infant_mortality)
```

```
## # A tibble: 10,545 × 10
##    country        year infant_mortality gdp_per_capita life_expectancy fertility
##    <fct>         <int>            <dbl>          <dbl>           <dbl>     <dbl>
##  1 Albania        1960            115.             NA             62.9      6.19
##  2 Algeria        1960            148.           1243.            47.5      7.65
##  3 Angola         1960            208              NA             36.0      7.32
##  4 Antigua and …  1960             NA              NA             63.0      4.43
##  5 Argentina      1960             59.9          5254.            65.4      3.11
##  6 Armenia        1960             NA              NA             66.9      4.55
##  7 Aruba          1960             NA              NA             65.7      4.82
##  8 Australia      1960             20.3          9393.            70.9      3.45
##  9 Austria        1960             37.3          7415.            68.8      2.7 
## 10 Azerbaijan     1960             NA              NA             61.3      5.57
## # ℹ 10,535 more rows
## # ℹ 4 more variables: population <dbl>, gdp <dbl>, continent <fct>,
## #   region <fct>
```

Tương tự như tham số <span style='color: #640514; font-family: Source Code Pro;'>.after</span>, chúng ta sử dụng tham số <span style='color: #640514; font-family: Source Code Pro;'>.before</span> trong hàm <span style='color: #640514; font-family: Source Code Pro;'>mutate()</span> để cho biết biến mới thêm vào sẽ nằm phía trước biến mà chúng ta chỉ định. Để thêm biến thu nhập bình quân đầu người vào phía trước biến <span style='color: #640514; font-family: Source Code Pro;'>infant_mortality</span>, chúng ta sử dụng tham số <span style='color: #640514; font-family: Source Code Pro;'>.before</span> như sau


``` r
mutate(mytib, gdp_per_capita = gdp/population, .before = infant_mortality)
```

```
## # A tibble: 10,545 × 10
##    country        year gdp_per_capita infant_mortality life_expectancy fertility
##    <fct>         <int>          <dbl>            <dbl>           <dbl>     <dbl>
##  1 Albania        1960            NA             115.             62.9      6.19
##  2 Algeria        1960          1243.            148.             47.5      7.65
##  3 Angola         1960            NA             208              36.0      7.32
##  4 Antigua and …  1960            NA              NA              63.0      4.43
##  5 Argentina      1960          5254.             59.9            65.4      3.11
##  6 Armenia        1960            NA              NA              66.9      4.55
##  7 Aruba          1960            NA              NA              65.7      4.82
##  8 Australia      1960          9393.             20.3            70.9      3.45
##  9 Austria        1960          7415.             37.3            68.8      2.7 
## 10 Azerbaijan     1960            NA              NA              61.3      5.57
## # ℹ 10,535 more rows
## # ℹ 4 more variables: population <dbl>, gdp <dbl>, continent <fct>,
## #   region <fct>
```

Một hàm số khác được sử dụng với mục đích tương tự là thêm biến mới vào dữ liệu giống như hàm <span style='color: #640514; font-family: Source Code Pro;'>mutate()</span> là hàm <span style='color: #640514; font-family: Source Code Pro;'>transmute()</span>. Hàm <span style='color: #640514; font-family: Source Code Pro;'>transmute()</span> khác hàm <span style='color: #640514; font-family: Source Code Pro;'>mutate()</span> ở chỗ là trong dữ liệu mới được tạo thành chỉ bao gồm các biến mới được khai báo trong hàm số đó. Ví dụ, chúng ta có thể thêm biến thu nhập bình quân đầu người của các quốc gia vào dữ liệu ban đầu bằng hàm <span style='color: #640514; font-family: Source Code Pro;'>transmute()</span>:

``` r
transmute(mytib, gdp_per_capita = gdp/population)
```

```
## # A tibble: 10,545 × 1
##    gdp_per_capita
##             <dbl>
##  1            NA 
##  2          1243.
##  3            NA 
##  4            NA 
##  5          5254.
##  6            NA 
##  7            NA 
##  8          9393.
##  9          7415.
## 10            NA 
## # ℹ 10,535 more rows
```
…
```
## [1] "country"          "year"             "infant_mortality" "life_expectancy" 
## [5] "fertility"        "population"       "gdp"              "continent"       
## [9] "region"
```

Lưu ý duy nhất khi sử dụng hàm <span style='color: #640514; font-family: Source Code Pro;'>select()</span> là cần gọi đúng tên các biến mà chúng ta muốn lựa chọn. Ví dụ, trong số 9 biến hiện có trong <span style='color: #640514; font-family: Source Code Pro;'>mytib</span>, chúng ta chỉ sử dụng ba biến có tên là <span style='color: #640514; font-family: Source Code Pro;'>year</span>, <span style='color: #640514; font-family: Source Code Pro;'>gdp</span>, và <span style='color: #640514; font-family: Source Code Pro;'>population</span>, chúng ta sử dụng hàm <span style='color: #640514; font-family: Source Code Pro;'>select()</span> như sau:


``` r
select(mytib, year, gdp, population) # lựa chọn các cột year, gdp, population
```

```
## # A tibble: 10,545 × 3
##     year          gdp population
##    <int>        <dbl>      <dbl>
##  1  1960           NA    1636054
##  2  1960  13828152297   11124892
##  3  1960           NA    5270844
##  4  1960           NA      54681
##  5  1960 108322326649   20619075
##  6  1960           NA    1867396
##  7  1960           NA      54208
##  8  1960  96677859364   10292328
##  9  1960  52392699681    7065525
## 10  1960           NA    3897889
## # ℹ 10,535 more rows
```

Khi sử dụng hàm <span style='color: #640514; font-family: Source Code Pro;'>select()</span> để lựa chọn biến, chúng ta cũng có thể thực hiện đổi tên biến trong cùng một câu lệnh. Ví dụ, bạn đọc muốn tên các biến mới tương ứng với các biến <span style='color: #640514; font-family: Source Code Pro;'>year</span>, <span style='color: #640514; font-family: Source Code Pro;'>gdp</span>, và <span style='color: #640514; font-family: Source Code Pro;'>population</span> lần lượt là <span style='color: #640514; font-family: Source Code Pro;'>Year</span>, <span style='color: #640514; font-family: Source Code Pro;'>Gdp</span> và <span style='color: #640514; font-family: Source Code Pro;'>Population</span>, chúng ta viết câu lệnh với hàm <span style='color: #640514; font-family: Source Code Pro;'>select()</span> như sau:


``` r
select(mytib, Year = year, Gdp =  gdp,  Population = population)
```

```
## # A tibble: 10,545 × 3
##     Year          Gdp Population
##    <int>        <dbl>      <dbl>
##  1  1960           NA    1636054
##  2  1960  13828152297   11124892
##  3  1960           NA    5270844
##  4  1960           NA      54681
##  5  1960 108322326649   20619075
##  6  1960           NA    1867396
##  7  1960           NA      54208
##  8  1960  96677859364   10292328
##  9  1960  52392699681    7065525
## 10  1960           NA    3897889
## # ℹ 10,535 more rows
```

Dữ liệu <span style='color: #640514; font-family: Source Code Pro;'>mytib</span> chỉ có 9 biến nên việc hiển thị và gọi đúng tên biến không gặp vấn đề. Tuy nhiên, khi dữ liệu có quá nhiều biến đồng thời tên các biến dài và khó nhớ thì việc gọi tên chính xác tất cả các biến trở nên khó khăn và câu lệnh <span style='color: #640514; font-family: Source Code Pro;'>select()</span> sẽ trở nên phức tạp. Để hỗ trợ cho người dùng khi gặp những khó khăn như vậy, thư viện <span style='color: #640514; font-family: Source Code Pro;'>dplyr</span> có các phương pháp lựa chọn biến mà không cần gọi chính xác tên biến. Ví dụ, chúng ta có thể sử dụng dấu <span style='color: #640514; font-family: Source Code Pro;'>:</span> đứng giữa hai tên biến cụ thể để lựa chọn tất cả các biến nằm giữa hai biến mà chúng ta chỉ định.


``` r
select(mytib, year, gdp:population)
```

```
## # A tibble: 10,545 × 3
##     year          gdp population
##    <int>        <dbl>      <dbl>
##  1  1960           NA    1636054
##  2  1960  13828152297   11124892
##  3  1960           NA    5270844
##  4  1960           NA      54681
##  5  1960 108322326649   20619075
##  6  1960           NA    1867396
##  7  1960           NA      54208
##  8  1960  96677859364   10292328
##  9  1960  52392699681    7065525
## 10  1960           NA    3897889
## # ℹ 10,535 more rows
```

Câu lệnh trên có ý nghĩa là lựa chọn từ dữ liệu <span style='color: #640514; font-family: Source Code Pro;'>mytib</span> biến <span style='color: #640514; font-family: Source Code Pro;'>year</span> và tất cả các biến nằm giữa biến <span style='color: #640514; font-family: Source Code Pro;'>gdp</span> và biến <span style='color: #640514; font-family: Source Code Pro;'>population</span>.

Ngoài ra, hàm <span style='color: #640514; font-family: Source Code Pro;'>select()</span> còn cho phép bạn đọc lựa chọn các biến mà chúng ta không nhớ chính xác tên bằng cách sử dụng một trong các tham số được liệt kê dưới đây:

* Tham số <span style='color: #640514; font-family: Source Code Pro;'>starts_with()</span> được sử dụng để lựa chọn các biến có tên bắt đầu bằng một chuỗi ký tự nào đó. Chúng ta chỉ cần viết đoạn ký tự đó trong hàm <span style='color: #640514; font-family: Source Code Pro;'>starts_with()</span> đặt trong hàm <span style='color: #640514; font-family: Source Code Pro;'>select()</span>. Ví dụ, chúng ta không nhớ chính xác tên của biến tỷ lệ tử vong của trẻ sơ sinh trong dữ liệu <span style='color: #640514; font-family: Source Code Pro;'>gapminder</span>; chúng ta chỉ chắc chắn rằng tên biến được bắt đầu bằng <span style='color: #640514; font-family: Source Code Pro;'>infant</span>. Tham số <span style='color: #640514; font-family: Source Code Pro;'>starts_with()</span> được sử dụng trong trường hợp này như sau:


``` r
# Lựa chọn tất cả các biến có tên bắt đầu bằng infant
select(mytib, starts_with("infant"))
```

```
## # A tibble: 10,545 × 1
##    infant_mortality
##               <dbl>
##  1            115. 
##  2            148. 
##  3            208  
##  4             NA  
##  5             59.9
##  6             NA  
##  7             NA  
##  8             20.3
##  9             37.3
## 10             NA  
## # ℹ 10,535 more rows
```

* Tương tự như tham số <span style='color: #640514; font-family: Source Code Pro;'>starts_with()</span>, các tham số <span style='color: #640514; font-family: Source Code Pro;'>ends_with()</span> hoặc <span style='color: #640514; font-family: Source Code Pro;'>contains()</span> được sử dụng để lựa chọn các biến có tên kết thúc bằng một chuỗi ký tự hoặc có tên chứa một chuỗi ký tự nào đó.

* Tham số <span style='color: #640514; font-family: Source Code Pro;'>matches()</span> có thể được sử dụng trong trường hợp tổng quát hơn <span style='color: #640514; font-family: Source Code Pro;'>contains()</span>khi các biến được lựa chọn có tên được biểu diễn qua các biểu thức chính quy.


``` r
mytib1<-mutate(mytib, gdp_per_capita = gdp/population)

# Lựa chọn các biến có tên chứa "gdp"
select(mytib1, contains("gdp")) 
```

```
## # A tibble: 10,545 × 2
##             gdp gdp_per_capita
##           <dbl>          <dbl>
##  1           NA            NA 
##  2  13828152297          1243.
##  3           NA            NA 
##  4           NA            NA 
##  5 108322326649          5254.
##  6           NA            NA 
##  7           NA            NA 
##  8  96677859364          9393.
##  9  52392699681          7415.
## 10           NA            NA 
## # ℹ 10,535 more rows
```

Khi số lượng biến được lựa chọn nhiều hơn số biến không được lựa chọn, hoặc khi chúng ta muốn loại một số biến không sử dụng ra khỏi dữ liệu, hàm <span style='color: #640514; font-family: Source Code Pro;'>select()</span> cũng cho phép chúng ta thực thi yêu cầu loại bỏ biến bằng cách thêm dấu <span style='color: #640514; font-family: Source Code Pro;'>-</span> vào trước tên các biến mà chúng ta muốn loại ra khỏi dữ liệu. Ví dụ, khi chúng ta muốn lựa chọn tất cả các biến, ngoại trừ các biến có tên bắt đầu bằng chuỗi ký tự <span style='color: #640514; font-family: Source Code Pro;'>gdp</span>, hàm <span style='color: #640514; font-family: Source Code Pro;'>select()</span> được sử dụng như sau:


``` r
select(mytib1, - starts_with("gdp"))
```

```
## # A tibble: 10,545 × 8
##    country  year infant_mortality life_expectancy fertility population continent
##    <fct>   <int>            <dbl>           <dbl>     <dbl>      <dbl> <fct>    
##  1 Albania  1960            115.             62.9      6.19    1636054 Europe   
##  2 Algeria  1960            148.             47.5      7.65   11124892 Africa   
##  3 Angola   1960            208              36.0      7.32    5270844 Africa   
##  4 Antigu…  1960             NA              63.0      4.43      54681 Americas 
##  5 Argent…  1960             59.9            65.4      3.11   20619075 Americas 
##  6 Armenia  1960             NA              66.9      4.55    1867396 Asia     
##  7 Aruba    1960             NA              65.7      4.82      54208 Americas 
##  8 Austra…  1960             20.3            70.9      3.45   10292328 Oceania  
##  9 Austria  1960             37.3            68.8      2.7     7065525 Europe   
## 10 Azerba…  1960             NA              61.3      5.57    3897889 Asia     
## # ℹ 10,535 more rows
## # ℹ 1 more variable: region <fct>
```
…
