Chương 6 Biến đổi và sắp xếp dữ liệu | Sách về khoa học dữ liệu
…
6.1.1 Thêm biến bằng hàm mutate()

Khi bạn đọc muốn thêm các cột khác vào một dữ liệu được tính toán từ các cột hiện có, bạn có thể sử dụng hàm mutate(). Hàm mutate() luôn thêm cột vào sau cột cuối cùng trong dữ liệu hiện có. Khi bạn muốn thêm cột vào một vị trí cụ thể, bạn có thể sử dụng các tham số sau:

Tham số .after sử dụng để gán giá trị cho tên biến (cột) phía trước cột mà bạn đọc muốn thêm vào.

Tham số .before sử dụng để gán giá trị cho tên biến (cột) phía sau cột mà bạn đọc muốn thêm vào.

Cách sử dụng mutate() như sau:

mytib<-as.tibble(gapminder) # mytib là dữ liệu kiểu tibble
mutate(mytib, gdp_per_capita = gdp/population) # thêm cột có tên là gdp_per_capita

## # A tibble: 10,545 × 10
##    country   year infant_mortality life_expectancy fertility population      gdp
##    <fct>    <int>            <dbl>           <dbl>     <dbl>      <dbl>    <dbl>
##  1 Albania   1960            115.             62.9      6.19    1636054 NA      
##  2 Algeria   1960            148.             47.5      7.65   11124892  1.38e10
##  3 Angola    1960            208              36.0      7.32    5270844 NA      
##  4 Antigua…  1960             NA              63.0      4.43      54681 NA      
##  5 Argenti…  1960             59.9            65.4      3.11   20619075  1.08e11
##  6 Armenia   1960             NA              66.9      4.55    1867396 NA      
##  7 Aruba     1960             NA              65.7      4.82      54208 NA      
##  8 Austral…  1960             20.3            70.9      3.45   10292328  9.67e10
##  9 Austria   1960             37.3            68.8      2.7     7065525  5.24e10
## 10 Azerbai…  1960             NA              61.3      5.57    3897889 NA      
## # ℹ 10,535 more rows
## # ℹ 3 more variables: continent <fct>, region <fct>, gdp_per_capita <dbl>

Câu lệnh trên có ý nghĩa là thêm cột có tên là \(gdp\_per\_capita\), được tính bằng tổng thu nhập quốc dân (\(gdp\)) chia cho dân số (\(population\)) của quốc gia trong năm tương ứng. Nếu bạn đọc muốn cột mới được thêm vào ngay sau cột \(gdp\), hãy sử dụng thêm tham số .after như sau:

mutate(mytib, gdp_per_capita = gdp/population, .after = gdp)

## # A tibble: 10,545 × 10
##    country   year infant_mortality life_expectancy fertility population      gdp
##    <fct>    <int>            <dbl>           <dbl>     <dbl>      <dbl>    <dbl>
##  1 Albania   1960            115.             62.9      6.19    1636054 NA      
##  2 Algeria   1960            148.             47.5      7.65   11124892  1.38e10
##  3 Angola    1960            208              36.0      7.32    5270844 NA      
##  4 Antigua…  1960             NA              63.0      4.43      54681 NA      
##  5 Argenti…  1960             59.9            65.4      3.11   20619075  1.08e11
##  6 Armenia   1960             NA              66.9      4.55    1867396 NA      
##  7 Aruba     1960             NA              65.7      4.82      54208 NA      
##  8 Austral…  1960             20.3            70.9      3.45   10292328  9.67e10
##  9 Austria   1960             37.3            68.8      2.7     7065525  5.24e10
## 10 Azerbai…  1960             NA              61.3      5.57    3897889 NA      
## # ℹ 10,535 more rows
## # ℹ 3 more variables: gdp_per_capita <dbl>, continent <fct>, region <fct>

và để thêm cột thu nhập bình quân đầu người vào phía trước cột \(gdp\), chúng ta sử dụng tham số .before

mutate(mytib, gdp_per_capita = gdp/population, .before = gdp)

## # A tibble: 10,545 × 10
##    country            year infant_mortality life_expectancy fertility population
##    <fct>             <int>            <dbl>           <dbl>     <dbl>      <dbl>
##  1 Albania            1960            115.             62.9      6.19    1636054
##  2 Algeria            1960            148.             47.5      7.65   11124892
##  3 Angola             1960            208              36.0      7.32    5270844
##  4 Antigua and Barb…  1960             NA              63.0      4.43      54681
##  5 Argentina          1960             59.9            65.4      3.11   20619075
##  6 Armenia            1960             NA              66.9      4.55    1867396
##  7 Aruba              1960             NA              65.7      4.82      54208
##  8 Australia          1960             20.3            70.9      3.45   10292328
##  9 Austria            1960             37.3            68.8      2.7     7065525
## 10 Azerbaijan         1960             NA              61.3      5.57    3897889
## # ℹ 10,535 more rows
## # ℹ 4 more variables: gdp_per_capita <dbl>, gdp <dbl>, continent <fct>,
## #   region <fct>

Hàm số được sử dụng tương tự như hàm mutate() là hàm \(transmute()\). Hàm \(transmute()\) khác \(mutate()\) ở chỗ là trong dữ liệu mới được tạo thành chỉ có các cột mới được tạo thành. Ví dụ,

transmute(mytib, gdp_per_capita = gdp/population)

## # A tibble: 10,545 × 1
##    gdp_per_capita
##             <dbl>
##  1            NA 
##  2          1243.
##  3            NA 
##  4            NA 
##  5          5254.
##  6            NA 
##  7            NA 
##  8          9393.
##  9          7415.
## 10            NA 
## # ℹ 10,535 more rows

Chúng ta có thể thấy rằng trong dữ liệu mới được tạo thành, chỉ có một cột duy nhất là cột thu nhập bình quân đầu người (\(gdp\_per\_capita\)).

6.1.2 Lựa chọn biến bằng hàm select()

Khi dữ liệu có quá nhiều cột và chúng ta chỉ muốn sử dụng một số cột nhất định để phân tích, bạn đọc có thể sử dụng hàm select() để lựa chọn các cột mà chúng ta sẽ sử dụng trong các bước tiếp theo. Điều quan trọng khi sử dụng hàm select() là bạn đọc cần gọi tên đúng các biến mà chúng ta muốn lựa chọn. Hàm select() được sử dụng như sau:

select(mytib, year, gdp, population) # lựa chọn các cột year, gdp, population

## # A tibble: 10,545 × 3
##     year          gdp population
##    <int>        <dbl>      <dbl>
##  1  1960           NA    1636054
##  2  1960  13828152297   11124892
##  3  1960           NA    5270844
##  4  1960           NA      54681
##  5  1960 108322326649   20619075
##  6  1960           NA    1867396
##  7  1960           NA      54208
##  8  1960  96677859364   10292328
##  9  1960  52392699681    7065525
## 10  1960           NA    3897889
## # ℹ 10,535 more rows

Hàm select() cũng có thể được sử dụng để lựa chọn cột và thay đổi tên cột. Ví dụ, khi bạn đọc muốn tên các biến mới tương ứng với các biến \(year\), \(gdp\), và \(population\) thành \(Year\), \(Gdp\) và \(Population\), chúng ta viết câu lệnh với hàm select() như sau:

select(mytib, Year = year, Gdp =  gdp,  Population = population)

## # A tibble: 10,545 × 3
##     Year          Gdp Population
##    <int>        <dbl>      <dbl>
##  1  1960           NA    1636054
##  2  1960  13828152297   11124892
##  3  1960           NA    5270844
##  4  1960           NA      54681
##  5  1960 108322326649   20619075
##  6  1960           NA    1867396
##  7  1960           NA      54208
##  8  1960  96677859364   10292328
##  9  1960  52392699681    7065525
## 10  1960           NA    3897889
## # ℹ 10,535 more rows

Khi dữ liệu có quá nhiều cột và việc gọi tên chính xác tất cả các cột làm cho câu lệnh select() quá phức tạp, bạn đọc có thể sử dụng select() để lựa chọn ra các cột đứng liền nhau bằng cách sử dụng dấu :,

select(mytib, year, gdp:population)

## # A tibble: 10,545 × 3
##     year          gdp population
##    <int>        <dbl>      <dbl>
##  1  1960           NA    1636054
##  2  1960  13828152297   11124892
##  3  1960           NA    5270844
##  4  1960           NA      54681
##  5  1960 108322326649   20619075
##  6  1960           NA    1867396
##  7  1960           NA      54208
##  8  1960  96677859364   10292328
##  9  1960  52392699681    7065525
## 10  1960           NA    3897889
## # ℹ 10,535 more rows

Câu lệnh trên có ý nghĩa là lấy ra biến \(year\) và tất cả các biến nằm giữa biến \(gdp\) và biến \(population\).

Hàm select() còn cho phép bạn đọc lấy ra các cột mà chúng ta không nhớ chính xác tên bằng cách sử dụng các tham số dưới đây:

Tham số starts_with() được sử dụng để lựa chọn các cột có tên bắt đầu bằng một chuỗi ký tự nào đó. Ví dụ như khi chúng ta không nhớ chính xác tên của biến mô tả tỷ lệ tử vong của trẻ sơ sinh trong dữ liệu \(\textbf{gapminder}\), chúng ta chỉ chắc chắn rằng tên cột bắt đầu bằng "infant", chúng ta lựa chọn biến này như sau:

select(mytib, starts_with("infant"))

## # A tibble: 10,545 × 1
##    infant_mortality
##               <dbl>
##  1            115. 
##  2            148. 
##  3            208  
##  4             NA  
##  5             59.9
##  6             NA  
##  7             NA  
##  8             20.3
##  9             37.3
## 10             NA  
## # ℹ 10,535 more rows

Tương tự như starts_with(), các tham số ends_with() và contains() được sử dụng để lựa chọn các cột kết thúc bởi một chuỗi ký tự và chứa một chuỗi ký tự nào đó.

Tham số matches() có thể được sử dụng trong trường hợp tổng quát hơn contains() các cột được lựa chọn có tên được biểu diễn qua các biểu thức chính quy.

mytib1<-mutate(mytib, gdp_per_capita = gdp/population)
select(mytib1, contains("gdp")) # Lấy các cột có tên chứa "gdp"

## # A tibble: 10,545 × 2
##             gdp gdp_per_capita
##           <dbl>          <dbl>
##  1           NA            NA 
##  2  13828152297          1243.
##  3           NA            NA 
##  4           NA            NA 
##  5 108322326649          5254.
##  6           NA            NA 
##  7           NA            NA 
##  8  96677859364          9393.
##  9  52392699681          7415.
## 10           NA            NA 
## # ℹ 10,535 more rows

Khi số lượng cột được lựa chọn nhiều hơn số cột không được lựa chọn, hoặc khi bạn đọc muốn loại một số cột không sử dụng ra khỏi dữ liệu, hàm select() cũng cho phép chúng ta thực thi yêu cầu bằng cách thêm dấu - vào tên các cột mà chúng ta muốn loại ra khỏi dữ liệu. Hãy quan sát ví dụ dưới đây:

select(mytib1, - starts_with("gdp"))

## # A tibble: 10,545 × 8
##    country  year infant_mortality life_expectancy fertility population continent
##    <fct>   <int>            <dbl>           <dbl>     <dbl>      <dbl> <fct>    
##  1 Albania  1960            115.             62.9      6.19    1636054 Europe   
##  2 Algeria  1960            148.             47.5      7.65   11124892 Africa   
##  3 Angola   1960            208              36.0      7.32    5270844 Africa   
##  4 Antigu…  1960             NA              63.0      4.43      54681 Americas 
##  5 Argent…  1960             59.9            65.4      3.11   20619075 Americas 
##  6 Armenia  1960             NA              66.9      4.55    1867396 Asia     
##  7 Aruba    1960             NA              65.7      4.82      54208 Americas 
##  8 Austra…  1960             20.3            70.9      3.45   10292328 Oceania  
##  9 Austria  1960             37.3            68.8      2.7     7065525 Europe   
## 10 Azerba…  1960             NA              61.3      5.57    3897889 Asia     
## # ℹ 10,535 more rows
## # ℹ 1 more variable: region <fct>

Hàm select() ỏ trên có ý nghĩa là loại đi ra khỏi dữ liệu tất cả các biến có tên bắt đầu bằng “gdp”

##$ Lọc dữ liệu bằng hàm filter()

Hàm filter() cho phép chúng ta lọc các quan sát dựa trên giá trị của các cột. Do có một số thư viện trong R sử dụng hàm filter() với mục đích khác nhau và chúng ta có thể không chắc chắn về thứ tự ưu tiên của các thư viện đang sẵn sàng trên môi trường làm việc hiện tại nên tốt nhất là chúng ta định nghĩa lại tên hàm filter() cho hàm có tên tương ứng của thư viện \(\textbf{dplyr}\)

filter<-function(...) dplyr::filter(...)

Cách hoạt động của hàm \(filter()\) như sau: ví dụ chúng ta muốn lấy ra dữ liệu của riêng năm 2010 trong dữ liệu \(\textbf{gapminder}\), hàm filter() được viết như sau như sau

filter(mytib, year == 2010) # chỉ lấy các quan sát có year là 2010

## # A tibble: 185 × 9
##    country   year infant_mortality life_expectancy fertility population      gdp
##    <fct>    <int>            <dbl>           <dbl>     <dbl>      <dbl>    <dbl>
##  1 Albania   2010             14.8            77.2      1.74    2901883  6.14e 9
##  2 Algeria   2010             23.5            76        2.82   36036159  7.92e10
##  3 Angola    2010            110.             57.6      6.22   21219954  2.61e10
##  4 Antigua…  2010              7.7            75.8      2.13      87233  8.37e 8
##  5 Argenti…  2010             13              75.8      2.22   41222875  4.34e11
##  6 Armenia   2010             16.1            73        1.55    2963496  4.10e 9
##  7 Aruba     2010             NA              75.1      1.7      101597 NA      
##  8 Austral…  2010              4.1            82        1.89   22162863  5.63e11
##  9 Austria   2010              3.6            80.5      1.44    8391986  2.24e11
## 10 Azerbai…  2010             33.9            70.1      1.97    9099893  2.12e10
## # ℹ 175 more rows
## # ℹ 2 more variables: continent <fct>, region <fct>

Sau khi thực thi câu lệnh ở trên, một tibble mới được tạo thành chỉ bao gồm các quan sát có giá trị cột \(year\) là 2010. Lưu ý rằng nếu chúng ta muốn lưu lại giá trị sau mỗi lần thực hiện biến đổi dữ liệu, hãy gán giá trị kết quả của các hàm trong thư viện \(\textbf{dplyr}\) vào một đối tượng. Hàm filter() có thể thực hiện việc lọc dữ liệu trên nhiều cột cùng một lúc. Ví dụ như chúng ta muốn lọc ra các quan sát của năm 2010 của các quốc gia thuộc lục địa Châu Âu, chúng ta sử dụng hai phép so sánh trong hàm filter()

filter(mytib, year == 2010, continent == "Europe") 

## # A tibble: 39 × 9
##    country    year infant_mortality life_expectancy fertility population     gdp
##    <fct>     <int>            <dbl>           <dbl>     <dbl>      <dbl>   <dbl>
##  1 Albania    2010             14.8            77.2      1.74    2901883 6.14e 9
##  2 Austria    2010              3.6            80.5      1.44    8391986 2.24e11
##  3 Belarus    2010              4.7            70.2      1.46    9492122 2.60e10
##  4 Belgium    2010              3.6            80.1      1.84   10929978 2.67e11
##  5 Bosnia a…  2010              6.4            77.9      1.24    3835258 8.21e 9
##  6 Bulgaria   2010             11.2            73.7      1.49    7407297 1.92e10
##  7 Croatia    2010              4.6            76.7      1.47    4316425 2.80e10
##  8 Czech Re…  2010              3.4            77.5      1.5    10506617 8.21e10
##  9 Denmark    2010              3.3            79.4      1.88    5550959 1.69e11
## 10 Estonia    2010              3.6            76.4      1.63    1332089 8.01e 9
## # ℹ 29 more rows
## # ℹ 2 more variables: continent <fct>, region <fct>

6.1.3 Sắp xếp dữ liệu bằng hàm arrange()

Hàm arrange() sắp xếp các quan sát của dữ liệu theo thứ tự tăng dần. Nguyên tắc sắp xếp cũng tương tự như quy tắc sắp xếp của hàm sort() khi làm trên véc-tơ, nghĩa là hàm bạn đọc có thể sắp xếp dữ liệu dựa theo kiểu số, kiểu logic, kiểu thời gian, hay kiểu chuỗi ký tự. Lưu ý rằng khi véc-tơ kiểu chuỗi ký tự được định nghĩa dưới dạng factor thì thứ tự tăng dần sẽ được hiểu theo cách đánh số thứ tự của factor bắt đầu từ 1.

Chúng ta sắp xếp dữ liệu \(\textbf{gapmider}\) theo thứ tự tăng dần cuả biến \(year\) như sau

arrange(mytib, year) 

## # A tibble: 10,545 × 9
##    country   year infant_mortality life_expectancy fertility population      gdp
##    <fct>    <int>            <dbl>           <dbl>     <dbl>      <dbl>    <dbl>
##  1 Albania   1960            115.             62.9      6.19    1636054 NA      
##  2 Algeria   1960            148.             47.5      7.65   11124892  1.38e10
##  3 Angola    1960            208              36.0      7.32    5270844 NA      
##  4 Antigua…  1960             NA              63.0      4.43      54681 NA      
##  5 Argenti…  1960             59.9            65.4      3.11   20619075  1.08e11
##  6 Armenia   1960             NA              66.9      4.55    1867396 NA      
##  7 Aruba     1960             NA              65.7      4.82      54208 NA      
##  8 Austral…  1960             20.3            70.9      3.45   10292328  9.67e10
##  9 Austria   1960             37.3            68.8      2.7     7065525  5.24e10
## 10 Azerbai…  1960             NA              61.3      5.57    3897889 NA      
## # ℹ 10,535 more rows
## # ℹ 2 more variables: continent <fct>, region <fct>

Để sắp xếp dữ liệu theo thứ tự giảm dần của một biến, nếu biến dữ liệu dùng để sắp xếp là kiểu số, bạn đọc chỉ cần thêm dấu - trước tên biến đó trong hàm arrange(). Trong trường hợp tổng quát, khi dữ liệu có thể có kiểu chuỗi ký tự, ngày tháng, …, chúng ta sử dụng hàm desc() để sắp xếp dữ liệu theo thứ tự giảm dần:

arrange(mytib, desc(year)) 

## # A tibble: 10,545 × 9
##    country      year infant_mortality life_expectancy fertility population   gdp
##    <fct>       <int>            <dbl>           <dbl>     <dbl>      <dbl> <dbl>
##  1 Albania      2016               NA            78.1        NA         NA    NA
##  2 Algeria      2016               NA            76.5        NA         NA    NA
##  3 Angola       2016               NA            60          NA         NA    NA
##  4 Antigua an…  2016               NA            76.5        NA         NA    NA
##  5 Argentina    2016               NA            76.7        NA         NA    NA
##  6 Armenia      2016               NA            74.9        NA         NA    NA
##  7 Aruba        2016               NA            75.8        NA         NA    NA
##  8 Australia    2016               NA            82.3        NA         NA    NA
##  9 Austria      2016               NA            81.4        NA         NA    NA
## 10 Azerbaijan   2016               NA            73.3        NA         NA    NA
## # ℹ 10,535 more rows
## # ℹ 2 more variables: continent <fct>, region <fct>

Việc sắp xếp dữ liệu có thể thực hiện dựa trên nhiều cột dữ liệu. Ví dụ, để sắp xếp dữ liệu \(\textbf{gapminder}\) theo thứ tự tăng dần theo năm (\(year\)), tiếp theo là theo Châu lục (\(continent\)), và sau cùng là theo vùng (\(region\)), bạn đọc viết câu lệnh như sau:

arrange(mytib, year, continent, region) 

## # A tibble: 10,545 × 9
##    country    year infant_mortality life_expectancy fertility population     gdp
##    <fct>     <int>            <dbl>           <dbl>     <dbl>      <dbl>   <dbl>
##  1 Burundi    1960            145.             40.6      6.95    2786740  3.41e8
##  2 Comoros    1960            200              44.0      6.79     188732 NA     
##  3 Djibouti   1960             NA              45.8      6.46      83636 NA     
##  4 Eritrea    1960             NA              39.0      6.9     1407631 NA     
##  5 Ethiopia   1960            162              37.7      6.88   22151218 NA     
##  6 Kenya      1960            119.             47.4      7.95    8105440  2.12e9
##  7 Madagasc…  1960            112              42.0      7.3     5099371  2.09e9
##  8 Malawi     1960            218.             38.5      6.91    3618604  3.48e8
##  9 Mauritius  1960             67.8            58.7      6.17     660023 NA     
## 10 Mozambiq…  1960            183              38.2      6.6     7493278 NA     
## # ℹ 10,535 more rows
## # ℹ 2 more variables: continent <fct>, region <fct>
…
