Chương 5 Tiền xử lý dữ liệu | Sách về khoa học dữ liệu
…
##  [1]  TRUE  TRUE  TRUE FALSE    NA    NA    NA FALSE FALSE FALSE FALSE  TRUE
## [13]  TRUE  TRUE FALSE
## attr(,"problems")
## # A tibble: 1 × 4
##     row   col expected           actual
##   <int> <int> <chr>              <chr> 
## 1     5    NA 1/0/T/F/TRUE/FALSE 2

Bạn đọc có thể thấy rằng tất cả các giá trị nằm trong véc-tơ \(\textbf{x}\), ngoại trừ hai ký tự đặc biệt đã được khai báo trong hàm parse_logical() là "." và "@", thì còn có giá trị "2" là không thể đổi sang biến kiểu logic. Có thể thấy rằng parse_logical() tự động đổi giá trị "1" thành TRUE và giá trị "0" thành FALSE. Trong trường hợp véc-tơ \(\textbf{x}\) có kích thước lớn, các phần tử không thể đổi sang kiểu logic sẽ được lưu vào một tibble. Bạn đọc sử dụng hàm problems() để xem danh sách các các giá trị này:

x1<-sample(x, 10^4, replace = TRUE)
y<-parse_logical(x1)
problems(y)

## # A tibble: 1,996 × 4
##      row   col expected           actual
##    <int> <int> <chr>              <chr> 
##  1     3    NA 1/0/T/F/TRUE/FALSE @     
##  2     8    NA 1/0/T/F/TRUE/FALSE 2     
##  3    11    NA 1/0/T/F/TRUE/FALSE 2     
##  4    20    NA 1/0/T/F/TRUE/FALSE 2     
##  5    24    NA 1/0/T/F/TRUE/FALSE @     
##  6    35    NA 1/0/T/F/TRUE/FALSE .     
##  7    48    NA 1/0/T/F/TRUE/FALSE 2     
##  8    51    NA 1/0/T/F/TRUE/FALSE .     
##  9    56    NA 1/0/T/F/TRUE/FALSE .     
## 10    66    NA 1/0/T/F/TRUE/FALSE @     
## # ℹ 1,986 more rows
…
